{
  "Portalconfig": {
    "portalTitle": {
      "title": "Master",
      "logo": "https://geodienste.hamburg.de/lgv-config/img/hh-logo.png",
      "link": "https://geoinfo.hamburg.de",
      "toolTip": "Landesbetrieb Geoinformation und Vermessung"
    },
    "searchBar": {
      "gazetteer": {
        "minchars": 3,
        "serviceId": "8",
        "searchStreets": true,
        "searchHouseNumbers": true,
        "searchDistricts": true,
        "searchParcels": true,
        "searchStreetKey": true
      },
      "osm": {
        "minChars": 3,
        "serviceId": "10",
        "limit": 60,
        "states": "Hamburg Thüringen Hessen Nordrhein-Westfalen",
        "classes": "place,highway,building,shop,historic,leisure,county"
      },
      "elasticSearch": {
        "minChars": 3,
        "serviceId": "elastic",
        "type": "GET",
        "payload": {
          "id": "query",
          "params": {
            "query_string": ""
          }
        },
        "searchStringAttribute": "query_string",
        "responseEntryPath": "hits.hits",
        "triggerEvent": {
          "channel": "Parser",
          "event": "addGdiLayer"
        },
        "hitMap": {
          "name": "_source.name",
          "id": "_source.id",
          "source": "_source"
        },
        "hitType": "common:modules.searchbar.type.subject",
        "hitGlyphicon": "glyphicon-list"
      },
      "visibleVector": {
        "gfiOnClick": true
      },
      "specialWFS": {
        "minChars": 3,
        "timeout": 10000,
        "definitions": [
          {
            "url": "/geodienste.hamburg.de/HH_WFS_Bebauungsplaene",
            "typeName": "app:hh_hh_festgestellt",
            "propertyNames": [
              "app:geltendes_planrecht"
            ],
            "geometryName": "app:geom",
            "name": "translate#common:modules.searchbar.specialWFS.terminated",
            "namespaces": "xmlns:app='http://www.deegree.org/app'"
          },
          {
            "url": "/geodienste.hamburg.de/HH_WFS_Bebauungsplaene",
            "typeName": "app:prosin_imverfahren",
            "propertyNames": [
              "app:plan"
            ],
            "geometryName": "app:the_geom",
            "name": "translate#common:modules.searchbar.specialWFS.ongoing",
            "namespaces": "xmlns:app='http://www.deegree.org/app'"
          },
          {
            "url": "/geodienste.hamburg.de/HH_WFS_KitaEinrichtung",
            "typeName": "app:KitaEinrichtungen",
            "propertyNames": [
              "app:Name"
            ],
            "name": "translate#common:modules.searchbar.specialWFS.childcare",
            "namespaces": "xmlns:app='http://www.deegree.org/app'"
          },
          {
            "url": "/geodienste.hamburg.de/HH_WFS_Stoerfallbetriebe",
            "typeName": "app:stoerfallbetrieb",
            "propertyNames": [
              "app:standort"
            ],
            "name": "translate#common:modules.searchbar.specialWFS.hazardous",
            "namespaces": "xmlns:app='http://www.deegree.org/app'"
          }
        ]
      },
      "visibleWFS": {
        "minChars": 3
      },
      "startZoomLevel": 9,
      "placeholder": "translate#common:modules.searchbar.placeholder.addressHospitalBplan"
    },
    "mapView": {
      "backgroundImage": "https://geodienste.hamburg.de/lgv-config/img/backgroundCanvas.jpeg",
      "startCenter": [
        565874,
        5934140
      ]
    },
    "menu": {
      "tree": {
        "name": "translate#common:menu.topics",
        "glyphicon": "glyphicon-list",
        "isInitOpen": false
      },
      "ansichten": {
        "name": "translate#common:menu.views.name",
        "glyphicon": "glyphicon-list",
        "children": {
          "view1": {
            "name": "translate#common:menu.views.view01",
            "type": "viewpoint",
            "glyphicon": "glyphicon-screenshot",
            "heading": -0.30858728378862876,
            "tilt": 0.9321791580603296,
            "altitude": 272.3469798217454,
            "center": [
              564028.7954571751,
              5934555.967867207
            ],
            "zoomLevel": 7.456437968949651
          }
        }
      },
      "filter": {
        "name": "translate#common:menu.filter",
        "glyphicon": "glyphicon-filter",
        "deactivateGFI": false,
        "isGeneric": false,
        "isInitOpen": false,
        "allowMultipleQueriesPerLayer": false,
        "predefinedQueries": [
          {
            "layerId": "8712",
            "isActive": false,
            "isSelected": false,
            "name": "Grundschulen",
            "predefinedRules": [
              {
                "attrName": "kapitelbezeichnung",
                "values": [
                  "Grundschulen",
                  "Langformschulen"
                ]
              }
            ],
            "attributeWhiteList": {
              "bezirk": "Bezirk",
              "stadtteil": "Stadtteil",
              "schulform": "Schulform",
              "ganztagsform": "Ganztagsform",
              "anzahl_schueler": "Anzahl Schüler",
              "schwerpunktschule": "Schwerpunktschule",
              "bilingual": "Bilingual"
            }
          },
          {
            "layerId": "8712",
            "isActive": false,
            "isSelected": false,
            "name": "Stadtteilschulen",
            "predefinedRules": [
              {
                "attrName": "kapitelbezeichnung",
                "values": [
                  "Stadtteilschulen",
                  "Langformschulen"
                ]
              }
            ],
            "attributeWhiteList": {
              "bezirk": "Bezirk",
              "stadtteil": "Stadtteil",
              "schulform": "Schulform",
              "ganztagsform": "Ganztagsform",
              "anzahl_schueler": "Schülerzahl",
              "schwerpunktschule": "Schwerpunktschule Inklusion",
              "fremdsprache": "Fremdsprachen",
              "fremdsprache_mit_klasse": "Fremdsprachen ab Klassenstufe",
              "schulische_ausrichtung": "Schwerpunkte in den Angeboten"
            }
          },
          {
            "layerId": "8712",
            "isActive": false,
            "isSelected": false,
            "name": "Gymnasien",
            "info": "Sie finden berufliche Gymnasien ab der Klassenstufe 11 bei den Beruflichen Schulen.",
            "predefinedRules": [
              {
                "attrName": "kapitelbezeichnung",
                "values": [
                  "Gymnasien"
                ]
              }
            ],
            "attributeWhiteList": {
              "bezirk": "Bezirk",
              "stadtteil": "Stadtteil",
              "schulform": "Schulform",
              "ganztagsform": "Ganztagsform",
              "anzahl_schueler": "Schülerzahl",
              "fremdsprache": "Fremdsprachen",
              "fremdsprache_mit_klasse": "Fremdsprachen ab Klassenstufe",
              "schulische_ausrichtung": "Schwerpunkte in den Angeboten"
            }
          },
          {
            "layerId": "8712",
            "isActive": false,
            "isSelected": false,
            "name": "Sonderschulen",
            "predefinedRules": [
              {
                "attrName": "kapitelbezeichnung",
                "values": [
                  "Sonderschulen"
                ]
              }
            ],
            "attributeWhiteList": {
              "bezirk": "Bezirk",
              "stadtteil": "Stadtteil",
              "ganztagsform": "Ganztagsform",
              "foerderart": "Förderart",
              "abschluss": "Abschluss"
            }
          },
          {
            "layerId": "1711",
            "isActive": true,
            "isSelected": true,
            "name": "Krankenhäuser",
            "predefinedRules": [],
            "attributeWhiteList": {
              "teilnahme_geburtsklinik": "Geburtshilfe",
              "teilnahme_notversorgung": "Not- und Unfallversorgung"
            }
          }
        ]
      },
      "tools": {
        "name": "translate#common:menu.tools.name",
        "glyphicon": "glyphicon-wrench",
        "children": {
          "wfsSearch": {
            "name": "WFS Suche",
            "instances": [
              {
                "title": "Hamburger Flurstücksuche",
                "resultDialogTitle": "Trefferliste",
                "requestConfig": {
                  "gazetteer": {
                    "namespaces": [
                      "http://www.adv-online.de/namespaces/adv/dog",
                      "http://geodienste.hamburg.de/dog_gages/services/wfs_dog?SERVICE=WFS&VERSION=2.0.0&REQUEST=DescribeFeatureType&OUTPUTFORMAT=application/gml+xml;+version=3.2&TYPENAME=dog:Flurstueckskoordinaten&NAMESPACES=xmlns(dog,http://www.adv-online.de/namespaces/adv/dog)"
                    ],
                    "memberSuffix": "member"
                  },
                  "restLayerId": "6",
                  "storedQueryId": "Flurstueck"
                },
                "resultList": {
                  "gemarkungsname": "Gemarkungsname",
                  "gemarkung": "Gemarkung",
                  "flurstuecksnummer": "Flurstücknummer",
                  "flurstueck_lang": "Flurstücknummer - lang",
                  "flurstuecksflaeche": "Flurstückfläche",
                  "verwaltungsart": "Verwaltungsart",
                  "gemeindename": "Gemeindename",
                  "gemeinde": "Gemeinde",
                  "kreisname": "Kreisname",
                  "kreis": "Kreis",
                  "land": "Land",
                  "regierungsbezirk": "Regierungsbezirk",
                  "status": "Status",
                  "geometry": "Geometrie"
                },
                "selectSource": "https://geodienste.hamburg.de/lgv-config/gemarkungen_hh.json",
                "literals": [
                  {
                    "clause": {
                      "type": "and",
                      "literals": [
                        {
                          "field": {
                            "type": "equal",
                            "inputLabel": "Gemarkung",
                            "fieldName": "gemarkung",
                            "usesId": true,
                            "options": "",
                            "required": true
                          }
                        },
                        {
                          "field": {
                            "type": "equal",
                            "inputLabel": "Flurstücksnummer",
                            "fieldName": "flurstuecksnummer",
                            "required": true
                          }
                        }
                      ]
                    }
                  }
                ]
              }
            ]
          },
          "populationRequest": {
            "name": "translate#additional:modules.tools.populationRequest.title",
            "glyphicon": "glyphicon-wrench",
            "onlyDesktop": false
          },
          "compareFeatures": {
            "name": "translate#common:menu.tools.compareFeatures",
            "glyphicon": "glyphicon-th-list",
            "numberOfFeaturesToShow": 3,
            "numberOfAttributesToShow": 12
          },
          "parcelSearch": {
            "name": "translate#common:menu.tools.parcelSearch",
            "glyphicon": "glyphicon-search",
            "serviceId": "6",
            "storedQueryID": "Flurstueck",
            "configJSON": "https://geodienste.hamburg.de/lgv-config/gemarkungen_hh.json",
            "parcelDenominator": false
          },
          "measure": {
            "name": "translate#common:menu.tools.measure",
            "glyphicon": "glyphicon-resize-full"
          },
          "supplyCoord": {
            "name": "translate#common:menu.tools.supplyCoord",
            "glyphicon": "glyphicon-screenshot"
          },
          "coordToolkit": {
            "name": "translate#common:menu.tools.coordToolkit",
            "glyphicon": "glyphicon-globe",
            "heightLayerId" : "19173",
            "heightElementName": "value_0",
            "heightValueWater": "-20",
            "heightValueBuilding": "200"
          },
          "shadow": {
            "name": "translate#common:menu.tools.shadow",
            "glyphicon": "glyphicon-lamp",
            "isShadowEnabled": true
          },
          "gfi": {
            "name": "translate#common:menu.tools.getInfos",
            "desktopType": "detached",
            "glyphicon": "glyphicon-info-sign",
            "active": true
          },
          "bufferAnalysis": {
            "name": "bufferAnalysis"
          },
          "searchByCoord": {
            "name": "translate#common:menu.tools.searchByCoord",
            "glyphicon": "glyphicon-record"
          },
          "selectFeatures": {
            "name": "translate#common:menu.tools.selectFeatures"
          },
          "fileImport": {
            "name": "translate#common:menu.tools.fileImport",
            "glyphicon": "glyphicon-import"
          },
          "extendedFilter": {
            "name": "Erweiterter Filter",
            "glyphicon": "glyphicon-filter",
            "deactivateGFI": false
          },
          "draw": {
            "name": "translate#common:menu.tools.draw",
            "glyphicon": "glyphicon-pencil",
            "iconList": [
              {
                "id": "iconPoint",
                "type": "simple_point",
                "value": "simple_point"
              },
              {
                "id": "iconMeadow",
                "type": "image",
                "scale": 0.8,
                "value": "wiese.png"
              },
              {
                "id": "gelber Pin",
                "type": "image",
                "scale": 0.5,
                "value": "https://maps.google.com/mapfiles/kml/pushpin/ylw-pushpin.png"
              }
            ]
          },
          "styleWMS": {
            "name": "translate#common:menu.tools.styleWMS",
            "glyphicon": "glyphicon-tint"
          },
          "featureLister": {
            "name": "translate#common:menu.tools.featureLister",
            "glyphicon": "glyphicon-menu-hamburger",
            "lister": 10,
            "highlightVectorRulesPolygon": {
              "fill": {
                "color": [255, 255, 255, 0.9]
            },
            "stroke": {
                "width": 4,
                "color": [0, 0, 204, 0.9]
            }
          },
          "highlightVectorRulesPointLine": {
            "stroke": {
                "width": 8,
                "color": [255, 0, 255, 0.9]
              },
              "image": {
                  "scale": 1.5
              }
            }
          },
          "saveSelection": {
            "name": "translate#common:menu.tools.saveSelection",
            "glyphicon": "glyphicon-share"
          },
          "layerSlider": {
            "name": "translate#common:menu.tools.layerSlider",
            "glyphicon": "glyphicon-film",
            "timeInterval": 1000,
            "layerIds": [
              {
                "title": "translate#common:modules.tools.layerSlider.serviceOne",
                "layerId": "8730"
              },
              {
                "title": "translate#common:modules.tools.layerSlider.serviceTwo",
                "layerId": "2426"
              },
              {
                "title": "translate#common:modules.tools.layerSlider.serviceThree",
                "layerId": "4561"
              }
            ]
          },
          "print": {
            "name": "translate#common:menu.tools.print",
            "glyphicon": "glyphicon-print",
            "mapfishServiceId": "mapfish",
            "printAppId": "master",
            "filename": "Ausdruck",
            "title": "Mein Titel",
            "currentLayoutName": "A4 Hochformat",
            "dpiForPdf": 120
          },
          "scaleSwitcher": {
            "name": "translate#common:menu.tools.scaleSwitcher",
            "glyphicon": "glyphicon-resize-small"
          },
          "vueAddon": {
            "name": "AddonTool",
            "glyphicon": "glyphicon-screenshot"
          }
        }
      },
      "legend": {
        "name": "common:modules.legend.name",
        "glyphicon": "glyphicon-book",
        "showCollapseAllButton": true
      },
      "contact": {
        "name": "translate#common:menu.contact",
        "glyphicon": "glyphicon-envelope",
        "serviceId": "80001",
        "includeSystemInfo": true,
        "from": [
          {
            "email": "lgvgeoportal-hilfe@gv.hamburg.de",
            "name": "LGVGeoportalHilfe"
          }
        ],
        "to": [
          {
            "email": "lgvgeoportal-hilfe@gv.hamburg.de",
            "name": "LGVGeoportalHilfe"
          }
        ]
      },
      "info": {
        "name": "translate#common:menu.info",
        "glyphicon": "glyphicon-info-sign",
        "children": {
          "staticlinks": [
            {
              "name": "translate#common:modules.tools.info.disclaimer",
              "glyphicon": "glyphicon-globe",
              "url": "https://preview.poc.hamburg.de/hhcae-cm7/servlet/segment/de/energiewende/waermekataster/8348242/waermekataster-haftungsausschuss"
            },
            {
              "name": "translate#common:modules.tools.info.home.name",
              "glyphicon": "glyphicon-globe",
              "url": "https://www.hamburg.de/"
            }
          ]
        }
      }
    },
    "controls": {
      "fullScreen": true,
      "orientation3d": true,
      "zoom": true,
      "orientation": {
        "zoomMode": "once",
        "poiDistances": [
          500,
          1000,
          2000
        ]
      },
      "totalView": true,
      "attributions": {
        "isInitOpenDesktop": true,
        "isInitOpenMobile": true
      },
      "overviewMap": {
        "layerId": "452",
        "isInitOpen": false
      },
      "mousePosition": true,
      "button3d": true,
      "buttonOblique": true,
      "freeze": true,
      "backForward": true
    },
    "layersRemovable": true
  },
  "Themenconfig": {
    "Hintergrundkarten": {
      "Layer": [
        {
          "id": "453",
          "visibility": true
        },
        {
          "id": "452"
        },
        {
          "id": [
            "4736",
            "12062",
            "4745",
            "4739",
            "12061",
            "4742",
            "12060",
            "12059"
          ],
          "name": "Geobasiskarten (schwarz-grau)",
          "gfiAttributes": "ignore"
        },
        {
          "id": "12883",
          "name": "Gelände",
          "visibility": true
        },
        {
          "id": "12884",
          "name": "Gebäude LoD2",
          "visibility": true
        },
        {
          "id": "13032",
          "name": "Oblique",
          "visibility": true
        }
      ]
    },
    "Fachdaten": {
      "Layer": [
        {
          "id": "1132",
          "styleId": "1132",
          "name": "100 Jahre Stadtgruen POIs",
          "transparency": 75
        },
        {
          "id": "16100",
          "name": "Hauptkirchen",
          "visibility": true,
          "isVisibleInTree": false,
          "hiddenFeatures": [
            "DEHH_8aeaf0d5-9f1a-4331-80fd-93b5dd5d8893",
            "DEHH_2b33b593-ca61-4ea5-8de6-5caa680adac3",
            "DEHH_0738b37a-0174-4af1-be99-e3bb0ea06310",
            "DEHH_312bc85a-f081-4a13-839f-98d5edcb931f",
            "DEHH_8aafabb5-ca73-4480-ab95-802d232ef479",
            "DEHH_4edd6675-173b-42ed-a150-f851367d8929",
            "DEHH_35e79400-5d75-4ee9-b73c-c406323b136c",
            "DEHH_9e6eb11c-5cc6-4b31-a8fb-93c544882dcd",
            "DEHH_c865516a-15fb-4894-b978-aa12cd8c9ab5",
            "DEHH_c7415053-4b33-4c82-b389-77a69ff1c319",
            "DEHH_e2d6158f-db9c-4fd4-9455-2565a41a3975",
            "DEHH_167f541b-7536-4b25-9b9a-7965140a214d"
          ]
        },
        {
          "id": "8730"
        },
        {
          "id": "2128",
          "styleId": "2128",
          "styleGeometryType": ["Point"],
          "name": "translate#common:tree.trafficCameras"
        },
        {
          "id": "10220"
        },
        {
          "id": "2426"
        },
        {
          "id": "1933",
          "infoFormat": "application/vnd.ogc.gml",
          "styles": [
            "geofox_stations"
          ],
          "name": [
            "HVV Haltestellen"
          ],
          "legendURL": [
            "https://geoportal.metropolregion.hamburg.de/legende_mrh/hvv-bus.png"
          ]
        },
        {
          "id": "4561",
          "infoFormat": "text/html",
          "visibility": false,
          "urlIsVisible": false
        },
        {
          "id": "9726"
        },
        {
          "id": "1562",
          "layerAttribution": "<span>Attributierung für Fachlayer Test Test Test Test Test Test Test Test</span>"
        },
        {
          "id": "3302",
          "gfiTheme": "trinkwasser",
          "featureCount": 5
        },
        {
          "id": "2059",
          "styleId": "2059",
          "clusterDistance": 30
        },
        {
          "id": "5708",
          "visibility": false,
          "styleable": true,
          "geomType": "Polygon",
          "attributesToStyle": [
            "Pkw_AP30"
          ]
        },
        {
          "id": "13765",
          "name": "Err. Arbeitsplätze deegree",
          "visibility": false,
          "styleable": true,
          "geomType": "Polygon",
          "attributesToStyle": [
            "mit_dem_pwk_in_30_min_erreichbare_arbeitsplaetze"
          ]
        },
        {
          "id": "2003",
          "styleId": "2003",
          "mouseHoverField": "gebietsname"
        },
        {
          "id": "47",
          "styleId": "47",
          "styleGeometryType": "Point",
          "mouseHoverField": [
            "baubeginn",
            "bauende"
          ],
          "autoRefresh": 6000,
          "clusterDistance": 50
        },
        {
          "id": "4905",
          "gfiTheme": "DataTable",
          "featureCount": 20
        },
        {
          "id": "10882",
          "styleId": "10882",
          "clusterDistance": 40,
          "searchField": "bezeichnung",
          "styleGeometryType": "Point"
        },
        {
          "id": [
            "4537",
            "4538"
          ],
          "name": "Eignungsflächen",
          "legendURL": [
            "https://geoportal-hamburg.de/legende/legende_solar.png"
          ],
          "gfiTheme": "solaratlas",
          "attributions": "<span>Darstellung der Eignungsflächen ab Maßstab 1: 5000 </span>"
        },
        {
          "id": "2407",
          "infoFormat": "text/html",
          "gfiAsNewWindow": {
            "name": "_blank",
            "specs": "toolbar=yes,scrollbars=yes,resizable=yes,top=0,left=500,width=800,height=700"
          }
        },
        {
          "id": "1711",
          "styleId": "1711",
          "visibility": true,
          "layerAttribution": "<span>Attributierung für Fachlayer</span>",
          "mouseHoverField": [
            "name",
            "strasse"
          ],
          "searchField": "name",
          "extendedFilter": true
        },
        {
          "id": "8712",
          "visibility": true,
          "name": "Schulinfosystem",
          "styleId": "8712",
          "searchField": "schulname",
          "mouseHoverField": [
            "schulname",
            "kapitelbezeichnung"
          ],
          "gfiTheme": "schulinfo",
          "additionalInfoField": "adresse_strasse_hausnr"
        },
        {
          "id": "753",
          "styleId": "753",
          "visibility": false,
          "mouseHoverField": "Name",
          "extendedFilter": true
        },
        {
          "id": "8145",
          "visibility": false,
          "gfiTheme": {
            "name": "default",
            "params": {
              "showFavoriteIcons": false
            }
          },
          "styleId": "8145",
          "hitTolerance": 25,
          "mouseHoverField": "kategorie",
          "extendedFilter": true
        },
        {
          "id": "myId",
          "children": [
            {
              "id": "946"
            },
            {
              "id": "947"
            }
          ],
          "name": "Verkehrslage auf Autobahnen",
          "layerAttribution": {
            "text": "",
            "channel": "Verkehrsfunctions",
            "eventname": "aktualisiereverkehrsnetz",
            "timeout": 60000
          }
        },
        {
          "id": "myId2",
          "children": [
            {
              "id": "682"
            },
            {
              "id": "1731"
            }
          ],
          "name": "Kita und KH"
        },
        {
          "id": "18106",
          "styleId": "18106",
          "clusterDistance": 50,
          "loadThingsOnlyInCurrentExtent": true,
          "gfiTheme" : {
            "name": "sensor",
            "params" : {
              "charts": {
                "barPercentage": 1.1,
                "values": {
                  "available": {
                    "title": "common:modules.tools.gfi.themes.sensor.chargingStations.available",
                    "color": "rgba(0, 220, 0, 1)",
                    "noticeText": "common:modules.tools.gfi.themes.sensor.sensorBarChart.noticeTextAvailable"
                  },
                  "charging": {
                    "title": "common:modules.tools.gfi.themes.sensor.chargingStations.charging",
                    "color": "rgba(220, 0, 0, 1)",
                    "noticeText": "common:modules.tools.gfi.themes.sensor.sensorBarChart.noticeTextCharging"
                  },
                  "outoforder": {
                      "title": "common:modules.tools.gfi.themes.sensor.chargingStations.outoforder",
                      "color": "rgba(175, 175, 175, 1)",
                      "noticeText": "common:modules.tools.gfi.themes.sensor.sensorBarChart.noticeTextOutoforder"
                  }
                }
              }
            }
          },
          "gfiAttributes" : {
            "dataStreamPhenomenonTime": "Letze Zustandsänderung",
            "dataStreamValue": "Zustand",
            "connector" : "Stecker",
            "steckerTyp" : "SteckerTyp",
            "authMeth2" : "Authentifizierungsmethode",
            "dataStreamId" : "DataStreamIds"
          }
        },
        {
          "id": "13023"
        },
        {
          "id" : "19173"
        }
      ]
    }
  }
}
